Introduction to Statistical Computing in R – Data Wrangling with dplyr
…
group_by()

Separate the data into different groups based on a categorical variable.

The data gets grouped, but nothing happens externally.

cereal |> 
  group_by(type)

# A tibble: 77 × 16
# Groups:   type [2]
   name      manuf type  calories protein   fat sodium fiber carbo sugars potass
   <fct>     <fct> <fct>    <int>   <int> <int>  <int> <dbl> <dbl>  <int>  <int>
 1 100% Bran N     cold        70       4     1    130  10     5        6    280
 2 100% Nat… Q     cold       120       3     5     15   2     8        8    135
 3 All-Bran  K     cold        70       4     1    260   9     7        5    320
 4 All-Bran… K     cold        50       4     0    140  14     8        0    330
 5 Almond D… R     cold       110       2     2    200   1    14        8     -1
 6 Apple Ci… G     cold       110       2     2    180   1.5  10.5     10     70
 7 Apple Ja… K     cold       110       2     0    125   1    11       14     30
 8 Basic 4   G     cold       130       3     2    210   2    18        8    100
 9 Bran Chex R     cold        90       2     1    200   4    15        6    125
10 Bran Fla… P     cold        90       3     0    210   5    13        5    190
# ℹ 67 more rows
# ℹ 5 more variables: vitamins <int>, shelf <int>, weight <dbl>, cups <dbl>,
#   rating <dbl>
…
