Gallary of Exemplary Student Work – Introduction to Statistical Computing in R
…
10. Which instructors had the highest and lowest average rating for Question 1 (I learnt a lot during the course.) across all their courses?

teacher_evals_clean |>
  group_by(teacher_id) |>
  filter(question_no == 901) |>
  summarize(avg_q1_score = mean(SET_score_avg), 
            .groups = "drop") |>
  filter(avg_q1_score == min(avg_q1_score) |
            avg_q1_score == max(avg_q1_score))

# A tibble: 82 × 2
   teacher_id avg_q1_score
   <fct>             <dbl>
 1 3471                  5
 2 3513                  5
 3 3543                  5
 4 3608                  5
 5 3662                  5
 6 3682                  5
 7 37013                 5
 8 37023                 5
 9 37026                 5
10 37988                 5
# ℹ 72 more rows
…
